project/pd0/test_pd.vcd
$date
	Fri Sep 12 23:26:31 2025
$end
$version
	ModelSim Version 2020.1
$end
$timescale
	1ps
$end

$scope module top $end
$var reg 1 ! clock $end
$var reg 1 " reset $end
$var integer 32 # counter $end
$var integer 32 $ errors $end
$var reg 1 % reset_done $end
$var reg 1 & reset_neg $end
$var reg 1 ' reset_reg $end
$var integer 32 ( reset_counter $end
$var reg 1 ) assign_xor_op1 $end
$var reg 1 * assign_xor_op2 $end
$var reg 1 + assign_xor_res $end
$var reg 2 , alu_sel [1:0] $end
$var reg 32 - alu_op1 [31:0] $end
$var reg 32 . alu_op2 [31:0] $end
$var reg 32 / alu_res [31:0] $end
$var reg 32 0 reg_rst_inp [31:0] $end
$var reg 32 1 reg_rst_out [31:0] $end
$var reg 32 2 tsp_op1 [31:0] $end
$var reg 32 3 tsp_op2 [31:0] $end
$var reg 32 4 tsp_out [31:0] $end

$scope module clkg $end
$var reg 1 5 clk $end
$var reg 1 6 rst $end
$var integer 32 7 counter $end
$upscope $end

$scope module dut $end
$var wire 1 8 clk $end
$var wire 1 9 reset $end

$scope module core $end
$var parameter 32 : DWIDTH $end
$var wire 1 8 clk $end
$var wire 1 9 reset $end
$var reg 1 ; assign_xor_op1 $end
$var reg 1 < assign_xor_op2 $end
$var reg 1 = assign_xor_res $end
$var reg 2 > alu_sel [1:0] $end
$var reg 32 ? alu_op1 [31:0] $end
$var reg 32 @ alu_op2 [31:0] $end
$var reg 32 A alu_res [31:0] $end
$var reg 1 B alu_zero $end
$var reg 1 C alu_neg $end
$var reg 1 D reg_we $end
$var reg 32 E reg_in [31:0] $end
$var reg 32 F reg_out [31:0] $end
$var reg 32 G pipe_op1 [31:0] $end
$var reg 32 H pipe_op2 [31:0] $end
$var reg 32 I pipe_res [31:0] $end

$scope module assign_xor_0 $end
$var wire 1 J op1_i $end
$var wire 1 K op2_i $end
$var reg 1 L res_o $end
$upscope $end

$scope module u_alu $end
$var parameter 32 M DWIDTH $end
$var wire 1 N sel_i [1] $end
$var wire 1 O sel_i [0] $end
$var wire 1 P op1_i [31] $end
$var wire 1 Q op1_i [30] $end
$var wire 1 R op1_i [29] $end
$var wire 1 S op1_i [28] $end
$var wire 1 T op1_i [27] $end
$var wire 1 U op1_i [26] $end
$var wire 1 V op1_i [25] $end
$var wire 1 W op1_i [24] $end
$var wire 1 X op1_i [23] $end
$var wire 1 Y op1_i [22] $end
$var wire 1 Z op1_i [21] $end
$var wire 1 [ op1_i [20] $end
$var wire 1 \ op1_i [19] $end
$var wire 1 ] op1_i [18] $end
$var wire 1 ^ op1_i [17] $end
$var wire 1 _ op1_i [16] $end
$var wire 1 ` op1_i [15] $end
$var wire 1 a op1_i [14] $end
$var wire 1 b op1_i [13] $end
$var wire 1 c op1_i [12] $end
$var wire 1 d op1_i [11] $end
$var wire 1 e op1_i [10] $end
$var wire 1 f op1_i [9] $end
$var wire 1 g op1_i [8] $end
$var wire 1 h op1_i [7] $end
$var wire 1 i op1_i [6] $end
$var wire 1 j op1_i [5] $end
$var wire 1 k op1_i [4] $end
$var wire 1 l op1_i [3] $end
$var wire 1 m op1_i [2] $end
$var wire 1 n op1_i [1] $end
$var wire 1 o op1_i [0] $end
$var wire 1 p op2_i [31] $end
$var wire 1 q op2_i [30] $end
$var wire 1 r op2_i [29] $end
$var wire 1 s op2_i [28] $end
$var wire 1 t op2_i [27] $end
$var wire 1 u op2_i [26] $end
$var wire 1 v op2_i [25] $end
$var wire 1 w op2_i [24] $end
$var wire 1 x op2_i [23] $end
$var wire 1 y op2_i [22] $end
$var wire 1 z op2_i [21] $end
$var wire 1 { op2_i [20] $end
$var wire 1 | op2_i [19] $end
$var wire 1 } op2_i [18] $end
$var wire 1 ~ op2_i [17] $end
$var wire 1 !! op2_i [16] $end
$var wire 1 "! op2_i [15] $end
$var wire 1 #! op2_i [14] $end
$var wire 1 $! op2_i [13] $end
$var wire 1 %! op2_i [12] $end
$var wire 1 &! op2_i [11] $end
$var wire 1 '! op2_i [10] $end
$var wire 1 (! op2_i [9] $end
$var wire 1 )! op2_i [8] $end
$var wire 1 *! op2_i [7] $end
$var wire 1 +! op2_i [6] $end
$var wire 1 ,! op2_i [5] $end
$var wire 1 -! op2_i [4] $end
$var wire 1 .! op2_i [3] $end
$var wire 1 /! op2_i [2] $end
$var wire 1 0! op2_i [1] $end
$var wire 1 1! op2_i [0] $end
$var reg 32 2! res_o [31:0] $end
$var reg 1 3! zero_o $end
$var reg 1 4! neg_o $end
$var reg 4 5! 0 [3:0] $end
$upscope $end

$scope module u_reg_rst $end
$var parameter 32 6! DWIDTH $end
$var wire 1 8 clk $end
$var wire 1 9 rst $end
$var wire 1 7! we $end
$var wire 1 8! in_i [31] $end
$var wire 1 9! in_i [30] $end
$var wire 1 :! in_i [29] $end
$var wire 1 ;! in_i [28] $end
$var wire 1 <! in_i [27] $end
$var wire 1 =! in_i [26] $end
$var wire 1 >! in_i [25] $end
$var wire 1 ?! in_i [24] $end
$var wire 1 @! in_i [23] $end
$var wire 1 A! in_i [22] $end
$var wire 1 B! in_i [21] $end
$var wire 1 C! in_i [20] $end
$var wire 1 D! in_i [19] $end
$var wire 1 E! in_i [18] $end
$var wire 1 F! in_i [17] $end
$var wire 1 G! in_i [16] $end
$var wire 1 H! in_i [15] $end
$var wire 1 I! in_i [14] $end
$var wire 1 J! in_i [13] $end
$var wire 1 K! in_i [12] $end
$var wire 1 L! in_i [11] $end
$var wire 1 M! in_i [10] $end
$var wire 1 N! in_i [9] $end
$var wire 1 O! in_i [8] $end
$var wire 1 P! in_i [7] $end
$var wire 1 Q! in_i [6] $end
$var wire 1 R! in_i [5] $end
$var wire 1 S! in_i [4] $end
$var wire 1 T! in_i [3] $end
$var wire 1 U! in_i [2] $end
$var wire 1 V! in_i [1] $end
$var wire 1 W! in_i [0] $end
$var reg 32 X! out_o [31:0] $end
$upscope $end

$scope module u_three_stage $end
$var parameter 32 Y! DWIDTH $end
$var wire 1 8 clk $end
$var wire 1 9 rst $end
$var wire 1 Z! op1_i [31] $end
$var wire 1 [! op1_i [30] $end
$var wire 1 \! op1_i [29] $end
$var wire 1 ]! op1_i [28] $end
$var wire 1 ^! op1_i [27] $end
$var wire 1 _! op1_i [26] $end
$var wire 1 `! op1_i [25] $end
$var wire 1 a! op1_i [24] $end
$var wire 1 b! op1_i [23] $end
$var wire 1 c! op1_i [22] $end
$var wire 1 d! op1_i [21] $end
$var wire 1 e! op1_i [20] $end
$var wire 1 f! op1_i [19] $end
$var wire 1 g! op1_i [18] $end
$var wire 1 h! op1_i [17] $end
$var wire 1 i! op1_i [16] $end
$var wire 1 j! op1_i [15] $end
$var wire 1 k! op1_i [14] $end
$var wire 1 l! op1_i [13] $end
$var wire 1 m! op1_i [12] $end
$var wire 1 n! op1_i [11] $end
$var wire 1 o! op1_i [10] $end
$var wire 1 p! op1_i [9] $end
$var wire 1 q! op1_i [8] $end
$var wire 1 r! op1_i [7] $end
$var wire 1 s! op1_i [6] $end
$var wire 1 t! op1_i [5] $end
$var wire 1 u! op1_i [4] $end
$var wire 1 v! op1_i [3] $end
$var wire 1 w! op1_i [2] $end
$var wire 1 x! op1_i [1] $end
$var wire 1 y! op1_i [0] $end
$var wire 1 z! op2_i [31] $end
$var wire 1 {! op2_i [30] $end
$var wire 1 |! op2_i [29] $end
$var wire 1 }! op2_i [28] $end
$var wire 1 ~! op2_i [27] $end
$var wire 1 !" op2_i [26] $end
$var wire 1 "" op2_i [25] $end
$var wire 1 #" op2_i [24] $end
$var wire 1 $" op2_i [23] $end
$var wire 1 %" op2_i [22] $end
$var wire 1 &" op2_i [21] $end
$var wire 1 '" op2_i [20] $end
$var wire 1 (" op2_i [19] $end
$var wire 1 )" op2_i [18] $end
$var wire 1 *" op2_i [17] $end
$var wire 1 +" op2_i [16] $end
$var wire 1 ," op2_i [15] $end
$var wire 1 -" op2_i [14] $end
$var wire 1 ." op2_i [13] $end
$var wire 1 /" op2_i [12] $end
$var wire 1 0" op2_i [11] $end
$var wire 1 1" op2_i [10] $end
$var wire 1 2" op2_i [9] $end
$var wire 1 3" op2_i [8] $end
$var wire 1 4" op2_i [7] $end
$var wire 1 5" op2_i [6] $end
$var wire 1 6" op2_i [5] $end
$var wire 1 7" op2_i [4] $end
$var wire 1 8" op2_i [3] $end
$var wire 1 9" op2_i [2] $end
$var wire 1 :" op2_i [1] $end
$var wire 1 ;" op2_i [0] $end
$var reg 32 <" res_o [31:0] $end
$var reg 32 =" sum_s1 [31:0] $end
$var reg 32 >" sum_s1_reg [31:0] $end
$var reg 32 ?" diff_s2 [31:0] $end
$var reg 32 @" diff_s2_reg [31:0] $end
$var wire 1 A" dif_s2_reg $end
$var reg 2 B" 2 [1:0] $end
$var reg 2 C" 0 [1:0] $end

$scope module alu_add $end
$var parameter 32 D" DWIDTH $end
$var wire 1 E" sel_i [1] $end
$var wire 1 F" sel_i [0] $end
$var wire 1 Z! op1_i [31] $end
$var wire 1 [! op1_i [30] $end
$var wire 1 \! op1_i [29] $end
$var wire 1 ]! op1_i [28] $end
$var wire 1 ^! op1_i [27] $end
$var wire 1 _! op1_i [26] $end
$var wire 1 `! op1_i [25] $end
$var wire 1 a! op1_i [24] $end
$var wire 1 b! op1_i [23] $end
$var wire 1 c! op1_i [22] $end
$var wire 1 d! op1_i [21] $end
$var wire 1 e! op1_i [20] $end
$var wire 1 f! op1_i [19] $end
$var wire 1 g! op1_i [18] $end
$var wire 1 h! op1_i [17] $end
$var wire 1 i! op1_i [16] $end
$var wire 1 j! op1_i [15] $end
$var wire 1 k! op1_i [14] $end
$var wire 1 l! op1_i [13] $end
$var wire 1 m! op1_i [12] $end
$var wire 1 n! op1_i [11] $end
$var wire 1 o! op1_i [10] $end
$var wire 1 p! op1_i [9] $end
$var wire 1 q! op1_i [8] $end
$var wire 1 r! op1_i [7] $end
$var wire 1 s! op1_i [6] $end
$var wire 1 t! op1_i [5] $end
$var wire 1 u! op1_i [4] $end
$var wire 1 v! op1_i [3] $end
$var wire 1 w! op1_i [2] $end
$var wire 1 x! op1_i [1] $end
$var wire 1 y! op1_i [0] $end
$var wire 1 z! op2_i [31] $end
$var wire 1 {! op2_i [30] $end
$var wire 1 |! op2_i [29] $end
$var wire 1 }! op2_i [28] $end
$var wire 1 ~! op2_i [27] $end
$var wire 1 !" op2_i [26] $end
$var wire 1 "" op2_i [25] $end
$var wire 1 #" op2_i [24] $end
$var wire 1 $" op2_i [23] $end
$var wire 1 %" op2_i [22] $end
$var wire 1 &" op2_i [21] $end
$var wire 1 '" op2_i [20] $end
$var wire 1 (" op2_i [19] $end
$var wire 1 )" op2_i [18] $end
$var wire 1 *" op2_i [17] $end
$var wire 1 +" op2_i [16] $end
$var wire 1 ," op2_i [15] $end
$var wire 1 -" op2_i [14] $end
$var wire 1 ." op2_i [13] $end
$var wire 1 /" op2_i [12] $end
$var wire 1 0" op2_i [11] $end
$var wire 1 1" op2_i [10] $end
$var wire 1 2" op2_i [9] $end
$var wire 1 3" op2_i [8] $end
$var wire 1 4" op2_i [7] $end
$var wire 1 5" op2_i [6] $end
$var wire 1 6" op2_i [5] $end
$var wire 1 7" op2_i [4] $end
$var wire 1 8" op2_i [3] $end
$var wire 1 9" op2_i [2] $end
$var wire 1 :" op2_i [1] $end
$var wire 1 ;" op2_i [0] $end
$var reg 32 G" res_o [31:0] $end
$var reg 1 H" zero_o $end
$var reg 1 I" neg_o $end
$var reg 4 J" 0 [3:0] $end
$upscope $end

$scope module reg_s1 $end
$var parameter 32 K" DWIDTH $end
$var wire 1 8 clk $end
$var wire 1 9 rst $end
$var wire 1 L" we $end
$var wire 1 M" in_i [31] $end
$var wire 1 N" in_i [30] $end
$var wire 1 O" in_i [29] $end
$var wire 1 P" in_i [28] $end
$var wire 1 Q" in_i [27] $end
$var wire 1 R" in_i [26] $end
$var wire 1 S" in_i [25] $end
$var wire 1 T" in_i [24] $end
$var wire 1 U" in_i [23] $end
$var wire 1 V" in_i [22] $end
$var wire 1 W" in_i [21] $end
$var wire 1 X" in_i [20] $end
$var wire 1 Y" in_i [19] $end
$var wire 1 Z" in_i [18] $end
$var wire 1 [" in_i [17] $end
$var wire 1 \" in_i [16] $end
$var wire 1 ]" in_i [15] $end
$var wire 1 ^" in_i [14] $end
$var wire 1 _" in_i [13] $end
$var wire 1 `" in_i [12] $end
$var wire 1 a" in_i [11] $end
$var wire 1 b" in_i [10] $end
$var wire 1 c" in_i [9] $end
$var wire 1 d" in_i [8] $end
$var wire 1 e" in_i [7] $end
$var wire 1 f" in_i [6] $end
$var wire 1 g" in_i [5] $end
$var wire 1 h" in_i [4] $end
$var wire 1 i" in_i [3] $end
$var wire 1 j" in_i [2] $end
$var wire 1 k" in_i [1] $end
$var wire 1 l" in_i [0] $end
$var reg 32 m" out_o [31:0] $end
$upscope $end

$scope module alu_sub $end
$var parameter 32 n" DWIDTH $end
$var wire 1 o" sel_i [1] $end
$var wire 1 p" sel_i [0] $end
$var wire 1 q" op1_i [31] $end
$var wire 1 r" op1_i [30] $end
$var wire 1 s" op1_i [29] $end
$var wire 1 t" op1_i [28] $end
$var wire 1 u" op1_i [27] $end
$var wire 1 v" op1_i [26] $end
$var wire 1 w" op1_i [25] $end
$var wire 1 x" op1_i [24] $end
$var wire 1 y" op1_i [23] $end
$var wire 1 z" op1_i [22] $end
$var wire 1 {" op1_i [21] $end
$var wire 1 |" op1_i [20] $end
$var wire 1 }" op1_i [19] $end
$var wire 1 ~" op1_i [18] $end
$var wire 1 !# op1_i [17] $end
$var wire 1 "# op1_i [16] $end
$var wire 1 ## op1_i [15] $end
$var wire 1 $# op1_i [14] $end
$var wire 1 %# op1_i [13] $end
$var wire 1 &# op1_i [12] $end
$var wire 1 '# op1_i [11] $end
$var wire 1 (# op1_i [10] $end
$var wire 1 )# op1_i [9] $end
$var wire 1 *# op1_i [8] $end
$var wire 1 +# op1_i [7] $end
$var wire 1 ,# op1_i [6] $end
$var wire 1 -# op1_i [5] $end
$var wire 1 .# op1_i [4] $end
$var wire 1 /# op1_i [3] $end
$var wire 1 0# op1_i [2] $end
$var wire 1 1# op1_i [1] $end
$var wire 1 2# op1_i [0] $end
$var wire 1 Z! op2_i [31] $end
$var wire 1 [! op2_i [30] $end
$var wire 1 \! op2_i [29] $end
$var wire 1 ]! op2_i [28] $end
$var wire 1 ^! op2_i [27] $end
$var wire 1 _! op2_i [26] $end
$var wire 1 `! op2_i [25] $end
$var wire 1 a! op2_i [24] $end
$var wire 1 b! op2_i [23] $end
$var wire 1 c! op2_i [22] $end
$var wire 1 d! op2_i [21] $end
$var wire 1 e! op2_i [20] $end
$var wire 1 f! op2_i [19] $end
$var wire 1 g! op2_i [18] $end
$var wire 1 h! op2_i [17] $end
$var wire 1 i! op2_i [16] $end
$var wire 1 j! op2_i [15] $end
$var wire 1 k! op2_i [14] $end
$var wire 1 l! op2_i [13] $end
$var wire 1 m! op2_i [12] $end
$var wire 1 n! op2_i [11] $end
$var wire 1 o! op2_i [10] $end
$var wire 1 p! op2_i [9] $end
$var wire 1 q! op2_i [8] $end
$var wire 1 r! op2_i [7] $end
$var wire 1 s! op2_i [6] $end
$var wire 1 t! op2_i [5] $end
$var wire 1 u! op2_i [4] $end
$var wire 1 v! op2_i [3] $end
$var wire 1 w! op2_i [2] $end
$var wire 1 x! op2_i [1] $end
$var wire 1 y! op2_i [0] $end
$var reg 32 3# res_o [31:0] $end
$var reg 1 4# zero_o $end
$var reg 1 5# neg_o $end
$var reg 4 6# 0 [3:0] $end
$upscope $end

$scope module reg_s2 $end
$var parameter 32 7# DWIDTH $end
$var wire 1 8 clk $end
$var wire 1 9 rst $end
$var wire 1 8# we $end
$var wire 1 9# in_i [31] $end
$var wire 1 :# in_i [30] $end
$var wire 1 ;# in_i [29] $end
$var wire 1 <# in_i [28] $end
$var wire 1 =# in_i [27] $end
$var wire 1 ># in_i [26] $end
$var wire 1 ?# in_i [25] $end
$var wire 1 @# in_i [24] $end
$var wire 1 A# in_i [23] $end
$var wire 1 B# in_i [22] $end
$var wire 1 C# in_i [21] $end
$var wire 1 D# in_i [20] $end
$var wire 1 E# in_i [19] $end
$var wire 1 F# in_i [18] $end
$var wire 1 G# in_i [17] $end
$var wire 1 H# in_i [16] $end
$var wire 1 I# in_i [15] $end
$var wire 1 J# in_i [14] $end
$var wire 1 K# in_i [13] $end
$var wire 1 L# in_i [12] $end
$var wire 1 M# in_i [11] $end
$var wire 1 N# in_i [10] $end
$var wire 1 O# in_i [9] $end
$var wire 1 P# in_i [8] $end
$var wire 1 Q# in_i [7] $end
$var wire 1 R# in_i [6] $end
$var wire 1 S# in_i [5] $end
$var wire 1 T# in_i [4] $end
$var wire 1 U# in_i [3] $end
$var wire 1 V# in_i [2] $end
$var wire 1 W# in_i [1] $end
$var wire 1 X# in_i [0] $end
$var reg 32 Y# out_o [31:0] $end
$upscope $end

$scope module reg_s3 $end
$var parameter 32 Z# DWIDTH $end
$var wire 1 8 clk $end
$var wire 1 9 rst $end
$var wire 1 [# we $end
$var wire 1 \# in_i [31] $end
$var wire 1 ]# in_i [30] $end
$var wire 1 ^# in_i [29] $end
$var wire 1 _# in_i [28] $end
$var wire 1 `# in_i [27] $end
$var wire 1 a# in_i [26] $end
$var wire 1 b# in_i [25] $end
$var wire 1 c# in_i [24] $end
$var wire 1 d# in_i [23] $end
$var wire 1 e# in_i [22] $end
$var wire 1 f# in_i [21] $end
$var wire 1 g# in_i [20] $end
$var wire 1 h# in_i [19] $end
$var wire 1 i# in_i [18] $end
$var wire 1 j# in_i [17] $end
$var wire 1 k# in_i [16] $end
$var wire 1 l# in_i [15] $end
$var wire 1 m# in_i [14] $end
$var wire 1 n# in_i [13] $end
$var wire 1 o# in_i [12] $end
$var wire 1 p# in_i [11] $end
$var wire 1 q# in_i [10] $end
$var wire 1 r# in_i [9] $end
$var wire 1 s# in_i [8] $end
$var wire 1 t# in_i [7] $end
$var wire 1 u# in_i [6] $end
$var wire 1 v# in_i [5] $end
$var wire 1 w# in_i [4] $end
$var wire 1 x# in_i [3] $end
$var wire 1 y# in_i [2] $end
$var wire 1 z# in_i [1] $end
$var wire 1 {# in_i [0] $end
$var reg 32 |# out_o [31:0] $end
$upscope $end
$upscope $end
$upscope $end
$upscope $end
$upscope $end
$enddefinitions $end
#0
$dumpvars
0!
x"
05
x6
0;
0<
0=
0L
b0 >
b0 ?
b0 @
b0 A
1B
0C
b0 2!
13!
04!
xD
b0 E
bx F
bx X!
b0 G
b0 H
bx I
bx <"
b0 ="
bx >"
b0 G"
1H"
0I"
bx m"
bx ?"
bx @"
bx 3#
x4#
x5#
bx Y#
bx |#
x%
x&
x'
x)
x*
x+
bx ,
bx -
bx .
bx /
bx 0
bx 1
bx 2
bx 3
bx 4
b1000 5!
b1 B"
b0 C"
b1000 J"
b100 6#
b100000 :
b100000 M
b100000 6!
b100000 Y!
b100000 D"
b100000 K"
b100000 n"
b100000 7#
b100000 Z#
b0 7
b0 #
b0 $
bx (
xA"
08
x9
0J
0K
0O
0N
0o
0n
0m
0l
0k
0j
0i
0h
0g
0f
0e
0d
0c
0b
0a
0`
0_
0^
0]
0\
0[
0Z
0Y
0X
0W
0V
0U
0T
0S
0R
0Q
0P
01!
00!
0/!
0.!
0-!
0,!
0+!
0*!
0)!
0(!
0'!
0&!
0%!
0$!
0#!
0"!
0!!
0~
0}
0|
0{
0z
0y
0x
0w
0v
0u
0t
0s
0r
0q
0p
x7!
0W!
0V!
0U!
0T!
0S!
0R!
0Q!
0P!
0O!
0N!
0M!
0L!
0K!
0J!
0I!
0H!
0G!
0F!
0E!
0D!
0C!
0B!
0A!
0@!
0?!
0>!
0=!
0<!
0;!
0:!
09!
08!
0y!
0x!
0w!
0v!
0u!
0t!
0s!
0r!
0q!
0p!
0o!
0n!
0m!
0l!
0k!
0j!
0i!
0h!
0g!
0f!
0e!
0d!
0c!
0b!
0a!
0`!
0_!
0^!
0]!
0\!
0[!
0Z!
0;"
0:"
09"
08"
07"
06"
05"
04"
03"
02"
01"
00"
0/"
0."
0-"
0,"
0+"
0*"
0)"
0("
0'"
0&"
0%"
0$"
0#"
0""
0!"
0~!
0}!
0|!
0{!
0z!
1[#
18#
1L"
0F"
0E"
0l"
0k"
0j"
0i"
0h"
0g"
0f"
0e"
0d"
0c"
0b"
0a"
0`"
0_"
0^"
0]"
0\"
0["
0Z"
0Y"
0X"
0W"
0V"
0U"
0T"
0S"
0R"
0Q"
0P"
0O"
0N"
0M"
1p"
0o"
x2#
x1#
x0#
x/#
x.#
x-#
x,#
x+#
x*#
x)#
x(#
x'#
x&#
x%#
x$#
x##
x"#
x!#
x~"
x}"
x|"
x{"
xz"
xy"
xx"
xw"
xv"
xu"
xt"
xs"
xr"
xq"
xX#
xW#
xV#
xU#
xT#
xS#
xR#
xQ#
xP#
xO#
xN#
xM#
xL#
xK#
xJ#
xI#
xH#
xG#
xF#
xE#
xD#
xC#
xB#
xA#
x@#
x?#
x>#
x=#
x<#
x;#
x:#
x9#
x{#
xz#
xy#
xx#
xw#
xv#
xu#
xt#
xs#
xr#
xq#
xp#
xo#
xn#
xm#
xl#
xk#
xj#
xi#
xh#
xg#
xf#
xe#
xd#
xc#
xb#
xa#
x`#
x_#
x^#
x]#
x\#
$end
#1
15
1!
18
b0 m"
b1 #
0)
0*
0+
b0 ,
b0 -
b0 .
b0 /
b0 0
b0 2
b0 3
b1 7
16
1"
b0 >"
19
02#
01#
00#
0/#
0.#
0-#
0,#
0+#
0*#
0)#
0(#
0'#
0&#
0%#
0$#
0##
0"#
0!#
0~"
0}"
0|"
0{"
0z"
0y"
0x"
0w"
0v"
0u"
0t"
0s"
0r"
0q"
b0 3#
14#
05#
b1 >
b1 ?
b100000000000000000000000000000 @
b1 E
b1 G
b100000000000000000000000000000 H
1;
b0 ?"
1W!
1J
1L
0X#
0W#
0V#
0U#
0T#
0S#
0R#
0Q#
0P#
0O#
0N#
0M#
0L#
0K#
0J#
0I#
0H#
0G#
0F#
0E#
0D#
0C#
0B#
0A#
0@#
0?#
0>#
0=#
0<#
0;#
0:#
09#
1=
1|!
1y!
1r
1o
1O
b100 5!
b11100000000000000000000000000001 2!
03!
14!
b11111111111111111111111111111111 3#
04#
15#
b100000000000000000000000000001 G"
0H"
b100000000000000000000000000001 ="
b11111111111111111111111111111111 ?"
1C
0B
b11100000000000000000000000000001 A
1X#
1W#
1V#
1U#
1T#
1S#
1R#
1Q#
1P#
1O#
1N#
1M#
1L#
1K#
1J#
1I#
1H#
1G#
1F#
1E#
1D#
1C#
1B#
1A#
1@#
1?#
1>#
1=#
1<#
1;#
1:#
19#
1l"
1O"
#2
05
0!
08
#3
15
1!
18
b0 X!
b0 Y#
b0 |#
b10 #
b0 (
1'
1)
1+
b1 ,
b1 -
b100000000000000000000000000000 .
b11100000000000000000000000000001 /
b1 0
b1 2
b100000000000000000000000000000 3
b10 7
b0 <"
b0 F
0A"
b0 I
b10 >
b10 ?
b10000000000000000000000000000 @
b10 E
b10 G
b10000000000000000000000000000000 H
0;
1<
0W!
1V!
0J
1K
0|!
1z!
0y!
1x!
1s
0r
0o
1n
0O
1N
b0 2!
b1 5!
13!
04!
b0 3#
b11111111111111111111111111111110 3#
b0 G"
b10000000000000000000000000000010 G"
1I"
b10000000000000000000000000000010 ="
b11111111111111111111111111111110 ?"
0C
1B
b0 A
0X#
0l"
1k"
0O"
1M"
#4
05
0!
08
#5
15
1!
18
b11 #
0)
1*
b10 ,
b10 -
b10000000000000000000000000000 .
b0 /
b10 0
b0 1
b10 2
b10000000000000000000000000000000 3
b0 4
b11 7
b11 >
b11 ?
b110000000000000000000000000000 @
b11 E
b11 G
b10100000000000000000000000000000 H
1;
1W!
1J
0L
0=
1|!
1y!
1r
1o
1O
b10 5!
b110000000000000000000000000011 2!
03!
b0 3#
b11111111111111111111111111111101 3#
b0 G"
b10100000000000000000000000000011 G"
b10100000000000000000000000000011 ="
b11111111111111111111111111111101 ?"
0B
b110000000000000000000000000011 A
1X#
0W#
1l"
1O"
#6
05
0!
08
#7
15
1!
18
b100 #
1)
0+
b11 ,
b11 -
b110000000000000000000000000000 .
b110000000000000000000000000011 /
b11 0
b11 2
b10100000000000000000000000000000 3
b100 7
b0 >
b100 ?
b10000000000000000000000000000000 @
b100 E
b100 G
b1000000000000000000000000000000 H
0;
0<
0W!
0V!
1U!
0J
0K
0|!
1{!
0z!
0y!
0x!
1w!
0s
0r
1p
0o
0n
1m
0O
0N
b0 2!
b1000 5!
b10000000000000000000000000000100 2!
14!
b0 3#
b11111111111111111111111111111100 3#
b0 G"
b1000000000000000000000000000100 G"
0I"
b1000000000000000000000000000100 ="
b11111111111111111111111111111100 ?"
1C
b10000000000000000000000000000100 A
0X#
0l"
0k"
1j"
0O"
1N"
0M"
#8
05
0!
08
#9
15
1!
18
b101 #
0)
0*
b0 ,
b100 -
b10000000000000000000000000000000 .
b10000000000000000000000000000100 /
b100 0
b100 2
b1000000000000000000000000000000 3
b101 7
b1 >
b101 ?
b10100000000000000000000000000000 @
b101 E
b101 G
b1100000000000000000000000000000 H
1;
1W!
1J
1L
1=
1|!
1y!
1r
1o
1O
b0 2!
b100 5!
b1100000000000000000000000000101 2!
04!
b0 3#
b11111111111111111111111111111011 3#
b0 G"
b1100000000000000000000000000101 G"
b1100000000000000000000000000101 ="
b11111111111111111111111111111011 ?"
0C
b1100000000000000000000000000101 A
1X#
1W#
0V#
1l"
1O"
#10
05
0!
08
#11
15
1!
18
b110 #
1)
1+
b1 ,
b101 -
b10100000000000000000000000000000 .
b1100000000000000000000000000101 /
b101 0
b101 2
b1100000000000000000000000000000 3
b110 7
06
0"
09
b10 >
b110 ?
b10010000000000000000000000000000 @
b110 E
b110 G
b11000000000000000000000000000000 H
0;
1<
0W!
1V!
0J
1K
0|!
1z!
0y!
1x!
1s
0r
0o
1n
0O
1N
b0 2!
b1 5!
13!
b0 3#
b11111111111111111111111111111010 3#
b0 G"
b11000000000000000000000000000110 G"
1I"
b11000000000000000000000000000110 ="
b11111111111111111111111111111010 ?"
1B
b0 A
0X#
0l"
1k"
0O"
1M"
#12
05
0!
08
#13
15
1!
18
b11000000000000000000000000000110 m"
b11111111111111111111111111111010 Y#
bx |#
b111 #
b1 (
0'
1&
0)
1*
b10 ,
b110 -
b10010000000000000000000000000000 .
b0 /
b110 0
b110 2
b11000000000000000000000000000000 3
b111 7
bx <"
b11000000000000000000000000000110 >"
bx I
11#
10#
1r"
1q"
b0 3#
b11000000000000000000000000000000 3#
b11 >
b111 ?
b10110000000000000000000000000000 @
b111 E
b111 G
b11100000000000000000000000000000 H
1;
b11000000000000000000000000000000 ?"
1W!
1J
0L
0W#
0U#
0T#
0S#
0R#
0Q#
0P#
0O#
0N#
0M#
0L#
0K#
0J#
0I#
0H#
0G#
0F#
0E#
0D#
0C#
0B#
0A#
0@#
0?#
0>#
0=#
0<#
0;#
0=
1|!
1y!
1r
1o
1O
b10 5!
b10110000000000000000000000000111 2!
03!
14!
b0 3#
b10111111111111111111111111111111 3#
b0 G"
b11100000000000000000000000000111 G"
b11100000000000000000000000000111 ="
b10111111111111111111111111111111 ?"
1C
0B
b10110000000000000000000000000111 A
1X#
1W#
1V#
1U#
1T#
1S#
1R#
1Q#
1P#
1O#
1N#
1M#
1L#
1K#
1J#
1I#
1H#
1G#
1F#
1E#
1D#
1C#
1B#
1A#
1@#
1?#
1>#
1=#
1<#
1;#
0:#
1l"
1O"
#14
05
0!
08
#15
15
1!
18
b11100000000000000000000000000111 m"
b10111111111111111111111111111111 Y#
b1000 #
b10 (
1)
0+
b11 ,
b111 -
b10110000000000000000000000000000 .
b10110000000000000000000000000111 /
b111 0
b111 2
b11100000000000000000000000000000 3
bx 4
b1000 7
b11100000000000000000000000000111 >"
1A"
12#
1s"
b0 3#
b11100000000000000000000000000000 3#
b0 >
b1000 ?
b1000000000000000000000000000000 @
b1000 E
b1000 G
b1 H
0;
0<
b11100000000000000000000000000000 ?"
0W!
0V!
0U!
1T!
0J
0K
0X#
0W#
0V#
0U#
0T#
0S#
0R#
0Q#
0P#
0O#
0N#
0M#
0L#
0K#
0J#
0I#
0H#
0G#
0F#
0E#
0D#
0C#
0B#
0A#
0@#
0?#
0>#
0=#
0<#
1:#
1;"
0|!
0{!
0z!
0y!
0x!
0w!
1v!
0s
0r
1q
0p
0o
0n
0m
1l
0O
0N
b0 2!
b1000 5!
b1000000000000000000000000001000 2!
04!
b0 3#
b11011111111111111111111111111111 3#
b0 G"
b1001 G"
0I"
b1001 ="
b11011111111111111111111111111111 ?"
0C
b1000000000000000000000000001000 A
1X#
1W#
1V#
1U#
1T#
1S#
1R#
1Q#
1P#
1O#
1N#
1M#
1L#
1K#
1J#
1I#
1H#
1G#
1F#
1E#
1D#
1C#
1B#
1A#
1@#
1?#
1>#
1=#
1<#
0;#
0k"
0j"
1i"
0O"
0N"
0M"
#16
05
0!
08
